...........................................
............III............................
...........................................
...........................................
...........................................
...........................................
........................XXXX...............
...........................................
...........................................
...........................................
.S.........................................
RRR..RRRR..RRRRRRRRRRRRRRRRRRRRRRRRRRRRRRRR
...........................................
...........................................
...........................................
RRRRRRRRRRRRAAAAAAAAAARRRRRRRRRRRRRRRRRRRRR
RRRRRRRRRRRRAAAAAAAAAARRRRRRRRRRRRRRRRRRRRR
RRRRRRRRRRRRAAAAAAAAAARRRRRRRRRRRRRRRRRRRRR
RRRRRRRRRRRRRRRRRRRRRRRRRRRRRRRRRRRRRRRRRRR
RRRRRRRRRRRRRRRRRRRRRRRRRRRRRRRRRRRRRRRRRRR
RRRRRRRRRRRRRRRRRRRRRRRRRRRRRRRRRRRRRRRRRRR
RRRRRRRRRRRRRRRRRRRRRRRRRRRRRRRRRRRRRRRRRRR
RRRRRRRRRRRRRRRRRRRRRRRRRRRRRRRRRRRRRRRRRRR
RRRRRRRRRRRRRRRRRRRRRRRRRRRRRRRRRRRRRRRRRRR
RRRRRRRRRRRRRRRRRRRRRRRRRRRRRRRRRRRRRRRRRRR
RRRRRRRRRRRRRRRRRRRRRRRRRRRRRRRRRRRRRRRRRRR
RRRRRRRRRRRRRRRRRRRRRRRRRRRRRRRRRRRRRRRRRRR
RRRRRRRRRRRRRRRRRRRRRRRRRRRRRRRRRRRRRRRRRRR